<?xml version="1.0" standalone="no"?>
<!-- Generator: Gravit.io -->
<svg xmlns="http://www.w3.org/2000/svg" xmlns:xlink="http://www.w3.org/1999/xlink" style="isolation:isolate" viewBox="0 0 100 100" width="100" height="100">
  <defs>
    <clipPath id="_clipPath_d8MhpqmzsW5TOoqTcDCCzkIt9sPXKKXX"><rect width="100" height="100"/></clipPath>
  </defs>
  <g clip-path="url(#_clipPath_d8MhpqmzsW5TOoqTcDCCzkIt9sPXKKXX)">
    <g id="marketing"><path d=" M 18.965 46.865 C 20.442 32.114 32.109 20.447 46.86 18.97 L 46.86 0 C 21.659 1.575 1.573 21.664 0 46.865 L 18.965 46.865 Z " fill="rgb(0,132,214)"/><path d=" M 53.135 18.965 C 67.888 20.438 79.557 32.107 81.03 46.86 L 99.995 46.86 C 98.42 21.661 78.334 1.575 53.135 0 L 53.135 18.965 Z " fill="rgb(0,132,214)"/><path d=" M 81.03 53.135 C 79.557 67.888 67.888 79.557 53.135 81.03 L 53.135 99.995 C 78.336 98.422 98.425 78.335 100 53.135 L 81.03 53.135 Z " fill="rgb(0,132,214)"/><path d=" M 46.865 81.03 C 32.112 79.557 20.443 67.888 18.97 53.135 L 0 53.135 C 1.573 78.337 21.663 98.427 46.865 100 L 46.865 81.03 Z " fill="rgb(0,132,214)"/><path
      d=" M 56.304 47.875 C 54.624 46.998 52.897 46.216 51.13 45.532 C 50.113 45.137 49.157 44.602 48.29 43.942 C 47.507 43.414 47.093 42.487 47.223 41.552 C 47.353 40.617 48.005 39.838 48.902 39.545 C 49.457 39.321 50.047 39.2 50.645 39.185 C 52.899 39.05 55.15 39.496 57.183 40.479 C 58.215 40.978 58.555 40.828 58.905 39.745 C 59.273 38.608 59.578 37.454 59.92 36.311 C 60.046 35.996 60.034 35.643 59.886 35.339 C 59.738 35.034 59.468 34.807 59.143 34.712 C 57.827 34.124 56.44 33.709 55.018 33.479 C 53.136 33.185 53.136 33.185 53.136 31.303 C 53.122 28.652 53.122 28.652 50.465 28.652 C 50.08 28.652 49.697 28.643 49.311 28.652 C 48.07 28.686 47.861 28.904 47.826 30.154 C 47.809 30.714 47.826 31.274 47.817 31.842 C 47.809 33.504 47.8 33.477 46.21 34.053 C 42.493 35.09 39.874 38.413 39.733 42.27 C 39.548 45.669 41.427 48.845 44.496 50.319 C 46.423 51.333 48.411 52.226 50.448 52.993 C 51.228 53.313 51.957 53.743 52.615 54.27 C 53.517 54.907 53.99 55.994 53.841 57.089 C 53.693 58.184 52.947 59.105 51.907 59.479 C 50.704 59.993 49.382 60.165 48.087 59.978 C 46.058 59.75 44.087 59.159 42.266 58.234 C 41.19 57.675 40.871 57.823 40.509 58.986 C 40.195 59.992 39.914 61.005 39.637 62.019 C 39.26 63.383 39.402 63.707 40.704 64.345 C 42.369 65.101 44.136 65.608 45.948 65.848 C 47.364 66.074 47.408 66.135 47.425 67.605 C 47.434 68.269 47.434 68.942 47.442 69.607 C 47.394 69.964 47.51 70.324 47.758 70.586 C 48.006 70.847 48.359 70.982 48.719 70.953 C 49.698 70.97 50.685 70.97 51.665 70.944 C 52.006 70.977 52.344 70.853 52.582 70.606 C 52.82 70.359 52.932 70.016 52.885 69.676 C 52.885 68.768 52.929 67.849 52.894 66.941 C 52.838 66.557 52.938 66.166 53.174 65.856 C 53.409 65.547 53.759 65.345 54.144 65.297 C 56.168 64.766 57.97 63.606 59.293 61.984 C 61.052 59.809 61.737 56.956 61.158 54.218 C 60.578 51.481 58.795 49.15 56.304 47.875 Z "
      fill="rgb(0,132,214)"/></g>
  </g>
</svg>
