<?xml version="1.0" standalone="no"?>
<!-- Generator: Gravit.io -->
<svg xmlns="http://www.w3.org/2000/svg" xmlns:xlink="http://www.w3.org/1999/xlink" style="isolation:isolate" viewBox="0 0 100 100" width="100" height="100">
  <defs>
    <clipPath id="_clipPath_iC04xwlUDXpxmDSoleBe8XcEtWpkva7r"><rect width="100" height="100"/></clipPath>
  </defs>
  <g clip-path="url(#_clipPath_iC04xwlUDXpxmDSoleBe8XcEtWpkva7r)">
    <g id="roi"><path
      d=" M 77.522 0 L 22.478 0 C 17.167 0.007 12.864 4.31 12.858 9.62 L 12.858 90.38 C 12.864 95.69 17.167 99.993 22.478 100 L 77.522 100 C 82.833 99.993 87.136 95.69 87.142 90.38 L 87.142 9.62 C 87.136 4.31 82.833 0.007 77.522 0 L 77.522 0 Z  M 26.044 16.62 C 26.044 15.843 26.352 15.097 26.902 14.548 C 27.451 13.998 28.197 13.689 28.974 13.689 L 71.026 13.689 C 72.645 13.689 73.956 15.001 73.956 16.62 L 73.956 22.404 C 73.956 23.181 73.648 23.926 73.098 24.476 C 72.549 25.025 71.803 25.334 71.026 25.334 L 28.974 25.334 C 28.197 25.334 27.451 25.025 26.902 24.476 C 26.352 23.926 26.044 23.181 26.044 22.404 L 26.044 16.62 Z  M 35.907 82.404 C 35.907 83.181 35.598 83.927 35.049 84.476 C 34.499 85.026 33.754 85.334 32.977 85.334 L 28.974 85.334 C 28.197 85.334 27.451 85.026 26.902 84.476 C 26.352 83.927 26.044 83.181 26.044 82.404 L 26.044 79.629 C 26.044 78.852 26.352 78.107 26.902 77.557 C 27.451 77.008 28.197 76.699 28.974 76.699 L 32.979 76.699 C 33.756 76.699 34.501 77.008 35.051 77.557 C 35.6 78.107 35.909 78.852 35.909 79.629 L 35.907 82.404 Z  M 35.907 65.066 C 35.907 65.843 35.598 66.589 35.049 67.138 C 34.499 67.688 33.754 67.996 32.977 67.996 L 28.974 67.996 C 28.197 67.996 27.451 67.688 26.902 67.138 C 26.352 66.589 26.044 65.843 26.044 65.066 L 26.044 62.291 C 26.044 61.514 26.352 60.769 26.902 60.219 C 27.451 59.67 28.197 59.361 28.974 59.361 L 32.979 59.361 C 33.756 59.361 34.501 59.67 35.051 60.219 C 35.6 60.769 35.909 61.514 35.909 62.291 L 35.907 65.066 Z  M 55.172 82.404 C 55.172 83.181 54.863 83.927 54.314 84.476 C 53.764 85.026 53.019 85.334 52.242 85.334 L 48.239 85.334 C 47.461 85.334 46.716 85.026 46.167 84.476 C 45.617 83.927 45.308 83.181 45.308 82.404 L 45.308 79.629 C 45.308 78.852 45.617 78.107 46.167 77.557 C 46.716 77.008 47.461 76.699 48.239 76.699 L 52.244 76.699 C 53.021 76.699 53.766 77.008 54.316 77.557 C 54.865 78.107 55.174 78.852 55.174 79.629 L 55.172 82.404 Z  M 55.172 65.066 C 55.172 65.843 54.863 66.589 54.314 67.138 C 53.764 67.688 53.019 67.996 52.242 67.996 L 48.239 67.996 C 47.461 67.996 46.716 67.688 46.167 67.138 C 45.617 66.589 45.308 65.843 45.308 65.066 L 45.308 62.291 C 45.308 61.514 45.617 60.769 46.167 60.219 C 46.716 59.67 47.461 59.361 48.239 59.361 L 52.244 59.361 C 53.021 59.361 53.766 59.67 54.316 60.219 C 54.865 60.769 55.174 61.514 55.174 62.291 L 55.172 65.066 Z  M 55.172 47.728 C 55.172 48.505 54.863 49.25 54.314 49.8 C 53.764 50.35 53.019 50.658 52.242 50.658 L 28.974 50.658 C 28.197 50.658 27.451 50.35 26.902 49.8 C 26.352 49.25 26.044 48.505 26.044 47.728 L 26.044 44.953 C 26.044 44.176 26.352 43.431 26.902 42.881 C 27.451 42.331 28.197 42.023 28.974 42.023 L 52.242 42.023 C 53.019 42.023 53.764 42.331 54.314 42.881 C 54.863 43.431 55.172 44.176 55.172 44.953 L 55.172 47.728 Z  M 74.437 82.404 C 74.437 83.181 74.128 83.927 73.578 84.476 C 73.029 85.026 72.283 85.334 71.506 85.334 L 67.501 85.334 C 66.724 85.334 65.979 85.026 65.429 84.476 C 64.88 83.927 64.571 83.181 64.571 82.404 L 64.571 79.629 C 64.572 78.012 65.884 76.701 67.501 76.701 L 71.504 76.701 C 72.282 76.701 73.027 77.01 73.576 77.559 C 74.126 78.109 74.435 78.854 74.435 79.631 L 74.437 82.404 Z  M 74.437 65.066 C 74.437 65.843 74.128 66.589 73.578 67.138 C 73.029 67.688 72.283 67.996 71.506 67.996 L 67.501 67.996 C 66.724 67.996 65.979 67.688 65.429 67.138 C 64.88 66.589 64.571 65.843 64.571 65.066 L 64.571 62.291 C 64.572 60.674 65.884 59.363 67.501 59.363 L 71.504 59.363 C 72.282 59.363 73.027 59.671 73.576 60.221 C 74.126 60.771 74.435 61.516 74.435 62.293 L 74.437 65.066 Z  M 74.437 47.728 C 74.437 48.505 74.128 49.25 73.578 49.8 C 73.029 50.35 72.283 50.658 71.506 50.658 L 67.501 50.658 C 66.724 50.658 65.979 50.35 65.429 49.8 C 64.88 49.25 64.571 48.505 64.571 47.728 L 64.571 44.953 C 64.572 43.335 65.884 42.025 67.501 42.025 L 71.504 42.025 C 72.282 42.025 73.027 42.333 73.576 42.883 C 74.126 43.433 74.435 44.178 74.435 44.955 L 74.437 47.728 Z "
      fill="rgb(0,132,214)"/></g>
  </g>
</svg>
