<?xml version="1.0" standalone="no"?>
<!-- Generator: Gravit.io -->
<svg xmlns="http://www.w3.org/2000/svg" xmlns:xlink="http://www.w3.org/1999/xlink" style="isolation:isolate" viewBox="0 0 100 100" width="100" height="100">
  <defs>
    <clipPath id="_clipPath_0dZhrGskB9ol7RVbct4n5oa0hLDswPeT"><rect width="100" height="100"/></clipPath>
  </defs>
  <g clip-path="url(#_clipPath_0dZhrGskB9ol7RVbct4n5oa0hLDswPeT)"><path
    d=" M 82.979 40.384 L 81.038 40.384 L 81.038 31.265 C 81.141 14.395 67.771 0.521 50.908 0 C 50.451 0 49.537 0 49.081 0 C 32.227 0.527 18.865 14.395 18.966 31.258 L 18.966 40.377 L 17.021 40.377 C 14.02 40.377 11.569 43.477 11.569 47.303 L 11.569 93.05 C 11.569 96.872 14.018 100 17.021 100 L 82.979 100 C 85.98 100 88.431 96.872 88.431 93.05 L 88.431 47.301 C 88.433 43.484 85.983 40.384 82.979 40.384 Z  M 56.182 70.133 L 56.182 83.955 C 56.167 85.557 54.875 86.854 53.273 86.877 L 46.732 86.877 C 45.13 86.854 43.839 85.557 43.823 83.955 L 43.823 70.133 C 41.528 67.822 40.782 64.388 41.912 61.333 C 43.042 58.278 45.841 56.156 49.088 55.893 C 49.546 55.876 50.46 55.876 50.915 55.893 C 54.162 56.156 56.962 58.278 58.091 61.333 C 59.221 64.388 58.475 67.822 56.18 70.133 L 56.182 70.133 Z  M 68.184 40.384 L 31.816 40.384 L 31.816 31.265 C 31.816 21.221 39.959 13.078 50.003 13.078 C 60.047 13.078 68.189 21.221 68.189 31.265 L 68.189 40.384 L 68.184 40.384 Z "
    fill="rgb(0,132,214)"/></g>
</svg>
