<?xml version="1.0" standalone="no"?>
<!-- Generator: Gravit.io -->
<svg xmlns="http://www.w3.org/2000/svg" xmlns:xlink="http://www.w3.org/1999/xlink" style="isolation:isolate" viewBox="0 0 1770 1080" width="1770" height="1080">
  <defs>
    <clipPath id="_clipPath_SRxaZG2T3gsHG0LlD4RWAwIP23yVnEE2"><rect width="1770" height="1080"/></clipPath>
  </defs>
  <g clip-path="url(#_clipPath_SRxaZG2T3gsHG0LlD4RWAwIP23yVnEE2)">
    <clipPath id="_clipPath_Fowhn3XNByR8whHG150CIdlWbyQ8u1nx"><rect x="0" y="0" width="1770" height="1080" transform="matrix(-1,0,0,-1,1770,1080)" fill="rgb(255,255,255)"/></clipPath>
    <g clip-path="url(#_clipPath_Fowhn3XNByR8whHG150CIdlWbyQ8u1nx)">
      <g id="Group">
        <clipPath id="_clipPath_MeHm7ZU4MLNg3wpjTaCrKke7JkTdnwjA"><rect x="0" y="0" width="1770" height="1080" transform="matrix(-1,0,0,-1,1770,1080)" fill="rgb(255,255,255)"/></clipPath>
        <g clip-path="url(#_clipPath_MeHm7ZU4MLNg3wpjTaCrKke7JkTdnwjA)">
          <g id="Group">
            <g id="Artboard_1"><path
              d=" M 265.905 539.867 C 265.905 690.442 386.733 812.367 536.941 812.367 C 625.45 812.367 703.676 770.132 753.255 704.761 C 783.37 665.097 829.645 641.961 878.855 641.961 L 879.594 641.961 C 932.715 641.983 982.855 666.512 1015.479 708.435 C 1065.424 771.973 1142.915 813.106 1229.955 813.106 C 1380.163 813.106 1503.194 690.075 1503.194 539.499 L 1503.194 539.499 L 1503.194 539.132 C 1503.194 388.557 1382.366 266.632 1232.158 266.632 C 1143.649 266.632 1065.423 308.867 1015.844 374.238 C 985.729 413.902 939.455 437.038 890.244 437.038 L 889.509 437.038 C 836.388 437.016 786.248 412.487 753.624 370.564 C 703.675 307.026 626.184 265.893 539.144 265.893 C 388.936 265.893 265.905 388.924 265.905 539.5 L 265.905 539.5 L 265.905 539.867 Z "
              fill="none"
              vector-effect="non-scaling-stroke"
              stroke-width="5"
              stroke="rgb(0,132,214)"
              stroke-opacity="100"
              stroke-linejoin="miter"
              stroke-linecap="butt"
              stroke-miterlimit="4"/></g>
          </g>
        </g>
      </g>
    </g>
  </g>
</svg>
