<svg xmlns="http://www.w3.org/2000/svg" viewBox="7557.761 7523.138 101.696 61.267">
  <defs>
    <style>
      .cls-1 {
        fill: #0084D6;
      }
    </style>
  </defs>
  <g id="pair-of-banknotes" transform="translate(7557.761 7523.138)">
    <path id="Path_238" data-name="Path 238" class="cls-1" d="M229.741,156.629a9.663,9.663,0,0,0-4.482,2.41h13.324A9.757,9.757,0,0,0,229.741,156.629Z" transform="translate(-188.792 -140.278)"/>
    <path id="Path_239" data-name="Path 239" class="cls-1" d="M113.406,89.259l-6.33-28.035a5.618,5.618,0,0,0-6.664-4.21L44.719,69.59a5.514,5.514,0,0,0-4.283,6.051h11.8a9.607,9.607,0,0,0,.489-2.492l41.987-9.474a9.479,9.479,0,0,0,8.66,4.925l3.52,15.59a9.424,9.424,0,0,0-2.177,1.318V96.934l4.48-1.012A5.581,5.581,0,0,0,113.406,89.259Z" transform="translate(-33.859 -56.879)"/>
    <path id="Path_240" data-name="Path 240" class="cls-1" d="M62.668,188.939H5.573A5.578,5.578,0,0,0,0,194.511v28.743a5.579,5.579,0,0,0,5.573,5.573h57.1a5.579,5.579,0,0,0,5.573-5.573V194.511A5.579,5.579,0,0,0,62.668,188.939Zm.339,27.934a9.49,9.49,0,0,0-7.369,6.719H12.6a9.481,9.481,0,0,0-7.368-6.719V200.891a9.485,9.485,0,0,0,7.368-6.719H55.64a9.487,9.487,0,0,0,7.367,6.719v15.982Z" transform="translate(0 -167.56)"/>
    <path id="Path_241" data-name="Path 241" class="cls-1" d="M160.208,251.809a9.765,9.765,0,1,0,9.766,9.765A9.766,9.766,0,0,0,160.208,251.809Z" transform="translate(-126.086 -220.252)"/>
    <g id="Coin" transform="translate(58.73 15.353)">
      <path id="Path_318" data-name="Path 318" class="cls-1" d="M16.483,0A16.483,16.483,0,1,0,32.966,16.483,16.484,16.484,0,0,0,16.483,0Zm4.495,22.847a5.236,5.236,0,0,1-3.513,1.606v2.332H15.513v-2.32q-3.83-.392-4.742-4.451l3.018-.787a2.624,2.624,0,0,0,2.777,2.549,2.15,2.15,0,0,0,1.624-.545,1.843,1.843,0,0,0,.519-1.318,1.452,1.452,0,0,0-.519-1.211,9.382,9.382,0,0,0-2.31-1.046,13.592,13.592,0,0,1-2.515-1.1,4.154,4.154,0,0,1-1.471-1.525,4.525,4.525,0,0,1-.565-2.29,5.077,5.077,0,0,1,1.01-3.082,4.513,4.513,0,0,1,3.175-1.672v-1.8h1.952v1.8a4.721,4.721,0,0,1,4.235,3.7l-2.688,1.1q-.788-2.27-2.433-2.27a1.775,1.775,0,0,0-1.326.507,1.685,1.685,0,0,0-.5,1.229,1.377,1.377,0,0,0,.483,1.131,8.294,8.294,0,0,0,2.064.974,18.322,18.322,0,0,1,2.726,1.2,4.285,4.285,0,0,1,1.579,1.559,4.486,4.486,0,0,1,.589,2.326A4.921,4.921,0,0,1,20.978,22.847Z" transform="translate(10 1)"/>
    </g>
  </g>
</svg>
