<svg xmlns="http://www.w3.org/2000/svg" viewBox="7341.377 7747.587 69.243 66.812">
  <defs>
    <style>
      .cls-1 {
        fill: #0084D6;
      }
    </style>
  </defs>
  <g id="closed" transform="translate(7426.622 7815.556) rotate(150)">
    <g id="Group_142" data-name="Group 142" transform="translate(0 32.005)">
      <path id="Path_316" data-name="Path 316" class="cls-1" d="M52.986,52.954a1.656,1.656,0,0,0-1.527-1.029H46.246A23.243,23.243,0,0,0,.008,55.873,23.558,23.558,0,0,0,24.215,78.465,22.785,22.785,0,0,0,38.006,73.16a1.657,1.657,0,0,0,.06-2.424l-4.724-4.724a1.689,1.689,0,0,0-2.231-.1,13.063,13.063,0,0,1-7.872,2.61,13.282,13.282,0,0,1-1.265-26.5,13.081,13.081,0,0,1,14.08,9.9H31.539a1.656,1.656,0,0,0-1.527,1.029,1.575,1.575,0,0,0,.365,1.793l9.96,9.96a1.6,1.6,0,0,0,2.324,0l9.96-9.96A1.575,1.575,0,0,0,52.986,52.954Z" transform="translate(0 -32.005)"/>
    </g>
  </g>
</svg>
