<svg xmlns="http://www.w3.org/2000/svg" viewBox="6980.818 7364.78 43.354 74.629">
  <defs>
    <style>
      .cls-1, .cls-2 {
        fill: #0084D6;
      }

      .cls-2 {
        font-size: 21px;
        font-family: BebasNeue, Bebas Neue;
      }
    </style>
  </defs>
  <g id="Group_58" data-name="Group 58" transform="translate(6964.857 7364.78)">
    <g id="smartphone-call" transform="translate(15.961 0)">
      <path id="Path_246" data-name="Path 246" class="cls-1" d="M45.647,0H12.375A5.055,5.055,0,0,0,7.334,5.041V69.587a5.057,5.057,0,0,0,5.041,5.043H45.647a5.053,5.053,0,0,0,5.041-5.041V5.041A5.055,5.055,0,0,0,45.647,0ZM23.689,3.633H34.333a.611.611,0,0,1,0,1.222H23.689a.611.611,0,0,1,0-1.222Zm5.322,68.476a2.521,2.521,0,1,1,2.52-2.522A2.52,2.52,0,0,1,29.011,72.109ZM47.18,65.3H10.842V7.994H47.18Z" transform="translate(-7.334)"/>
    </g>
    <text id="PAY" class="cls-2" transform="translate(38 44.296)"><tspan x="-11.739" y="0">PAY</tspan></text>
  </g>
</svg>
