<svg xmlns="http://www.w3.org/2000/svg" viewBox="6633.245 7261.412 37.746 50.813">
  <defs>
    <style>
      .cls-1 {
        fill: #0084D6;
      }
    </style>
  </defs>
  <g id="calculator" transform="translate(6633.245 7261.412)">
    <path id="Path_235" data-name="Path 235" class="cls-1" d="M98.692,0H70.722a4.894,4.894,0,0,0-4.888,4.888V45.925a4.894,4.894,0,0,0,4.888,4.888H98.692a4.894,4.894,0,0,0,4.888-4.888V4.888A4.894,4.894,0,0,0,98.692,0ZM72.534,8.445a1.489,1.489,0,0,1,1.489-1.489H95.391A1.489,1.489,0,0,1,96.88,8.445v2.939a1.489,1.489,0,0,1-1.489,1.489H74.023a1.489,1.489,0,0,1-1.489-1.489Zm5.012,33.427a1.489,1.489,0,0,1-1.489,1.489H74.023a1.489,1.489,0,0,1-1.489-1.489v-1.41a1.489,1.489,0,0,1,1.489-1.489h2.035a1.489,1.489,0,0,1,1.489,1.489Zm0-8.81a1.489,1.489,0,0,1-1.489,1.489H74.023a1.489,1.489,0,0,1-1.489-1.489v-1.41a1.489,1.489,0,0,1,1.489-1.489h2.035a1.489,1.489,0,0,1,1.489,1.489Zm9.789,8.81a1.489,1.489,0,0,1-1.489,1.489H83.812a1.489,1.489,0,0,1-1.489-1.489v-1.41a1.489,1.489,0,0,1,1.489-1.489h2.035a1.489,1.489,0,0,1,1.489,1.489Zm0-8.81a1.489,1.489,0,0,1-1.489,1.489H83.812a1.489,1.489,0,0,1-1.489-1.489v-1.41a1.489,1.489,0,0,1,1.489-1.489h2.035a1.489,1.489,0,0,1,1.489,1.489Zm0-8.81a1.489,1.489,0,0,1-1.489,1.489H74.023a1.489,1.489,0,0,1-1.489-1.489v-1.41a1.489,1.489,0,0,1,1.489-1.489H85.846a1.489,1.489,0,0,1,1.489,1.489Zm9.789,17.62a1.489,1.489,0,0,1-1.489,1.489H93.6a1.489,1.489,0,0,1-1.489-1.489v-1.41A1.489,1.489,0,0,1,93.6,38.974h2.034a1.489,1.489,0,0,1,1.489,1.489Zm0-8.81a1.489,1.489,0,0,1-1.489,1.489H93.6a1.489,1.489,0,0,1-1.489-1.489v-1.41A1.489,1.489,0,0,1,93.6,30.164h2.034a1.489,1.489,0,0,1,1.489,1.489Zm0-8.81a1.489,1.489,0,0,1-1.489,1.489H93.6a1.489,1.489,0,0,1-1.489-1.489v-1.41A1.489,1.489,0,0,1,93.6,21.354h2.034a1.489,1.489,0,0,1,1.489,1.489Z" transform="translate(-65.834)"/>
  </g>
</svg>
